Group 13 Final Project
…
# coefficients from the optimal model
lasso_fit = glmnet(x, y, lambda = lambda_opt)
lasso_fit %>% broom::tidy()

## # A tibble: 32 x 5
##    term                step  estimate   lambda dev.ratio
##    <chr>              <dbl>     <dbl>    <dbl>     <dbl>
##  1 (Intercept)            1 -0.0718   0.000561     0.103
##  2 sexM                   1  0.174    0.000561     0.103
##  3 sexZ                   1  0.214    0.000561     0.103
##  4 raceblack              1  0.0697   0.000561     0.103
##  5 raceblack-hispanic     1  0.0824   0.000561     0.103
##  6 racewhite-hispanic     1  0.0973   0.000561     0.103
##  7 age                    1 -0.00156  0.000561     0.103
##  8 height_inch            1  0.00644  0.000561     0.103
##  9 weight                 1  0.000203 0.000561     0.103
## 10 hair_colblack          1  0.0468   0.000561     0.103
## # … with 22 more rows
…
